477361 730125 509
638102 883157 525
584515 965052 525
421368 800707 509
388588 875656 525
851657 950710 507
664212 871393 525
784128 887065 525
752272 870679 525
978711 990008 427
78522 644047 509
825684 941768 525
681812 684462 380
684292 988758 525
485099 939308 525
595446 830247 509
545868 894215 525
302275 816062 509
95278 651337 509
379302 435852 449
530239 802598 509
265711 625712 470
200893 720283 509
639454 723894 504
814714 900327 525
560018 942447 525
969246 978830 458
15941 978351 525
968611 985877 458
818790 961397 525
355172 902176 525
252786 444896 449
172896 346910 443
888911 987682 507
545621 555986 452
444831 617407 470
803972 967831 525
54995 708912 509
863295 922086 476
302930 963762 525
964981 983205 458
846174 926163 476
351577 420759 449
573514 577166 390
726394 901857 525
17420 152088 375
777437 909766 525
673259 995944 525
733538 855240 525
702875 960029 525
268216 659217 509
194207 243250 443
923057 925917 370
139021 436569 449
20708 32723 308
211484 914719 525
758590 975474 525
655084 985295 525
935231 936939 414
184175 338532 443
870749 898854 445
680915 690065 398
45035 891547 525
697816 737005 504
977862 989260 427
853053 897421 445
202970 684993 509
190771 646161 509
323589 585622 470
434023 647913 509
514174 931357 525
684805 998628 525
436848 804388 509
842781 874012 432
86643 481233 449
821575 911564 525
560915 708336 509
973990 997912 440
225666 622078 470
593347 606253 403
740091 795105 468
404578 690314 509
120578 674600 509
70266 830085 509
890996 994171 507
367796 642387 509
565631 972703 525
32772 934213 525
420866 820271 509
658210 938292 525
978850 995525 427
739994 861376 525
436493 481647 444
544521 842146 525
14105 516772 470
308273 766979 509
249517 791364 509
335791 410570 449
568036 834653 509
142489 936245 525
651169 678036 442
413157 955203 525
111646 386944 443
337602 379177 441
239641 481395 449
508109 819875 509
294458 316656 384
386649 781913 509
346527 422874 449
226833 512333 470
107996 707132 509
842435 975248 507
913640 914010 352
486459 680862 509
557824 585402 434
19044 812164 509
757975 950550 525
211247 452976 449
668153 966668 525
754692 851988 525
439312 893442 525
574380 899936 525
484515 975855 525
892803 947570 507
518164 887124 525
525407 878968 525
570114 589320 434
987082 988468 352
37058 718962 509
652028 706314 504
90373 710441 509
288628 753396 509
890539 990135 507
841188 871051 419
198329 867542 525
709269 732465 411
279825 881991 525
564242 862258 525
971498 984585 427
121144 884003 525
142432 598599 470
284451 297555 389
120823 433176 449
308218 694637 509
512937 857120 525
234910 542379 470
397942 476770 449
74947 156094 375
800338 886887 525
29844 601032 470
112470 607864 470
843091 927281 476
610301 752271 509
483665 977878 525
347100 876818 525
702995 953818 525
108056 125329 349
955252 995640 458
590701 793796 509
566551 615989 447
400463 861665 525
192543 233867 443
901321 991549 507
131091 309663 443
183167 552668 470
601171 815308 509
17333 170694 383
226536 939958 525
65510 114734 354
442082 492765 444
85703 314589 443
629719 800411 504
529544 676768 509
971667 980388 383
513135 554546 452
908073 941239 507
138149 462017 449
129554 529373 470
820717 978562 525
198252 262090 443
835805 922434 525
302221 895310 525
212988 707507 509
616214 997530 525
447931 502281 444
387066 933188 525
663321 783799 504
28091 545711 470
340907 623281 470
683336 733253 504
18498 353660 443
282600 373805 441
842474 878658 432
270844 719614 509
154962 286610 443
712831 944628 525
491282 519299 470
787502 789397 406
290111 745265 509
435923 663054 509
400339 607222 470
924628 929770 476
150470 594182 470
602530 754372 509
746651 959631 525
878123 924717 476
889285 972903 507
618050 988997 525
977897 991083 427
189723 190974 360
134652 337295 443
7398 788659 509
518188 898575 525
70823 366636 443
940539 974671 458
56631 792910 509
280077 402868 441
58069 194296 383
238105 425266 449
334816 854200 525
752783 890996 525
624511 807204 509
606294 651019 509
455309 499794 444
274558 661074 509
524081 887755 525
215762 681475 509
699506 983376 525
873620 960367 507
875076 947371 507
202768 409429 443
703119 898549 525
457781 991257 525
826723 983962 525
833436 951433 525
543442 707994 509
534634 962480 525
713623 905128 525
