480639 519083
344975 218318
309171 412634
554553 203473
23226 184819
511694 430678
456736 255577
932494 678226
209986 658099
778814 375012
871890 526203
710686 163741
951361 765788
706543 559306
438160 261368
357698 644221
104532 749249
643656 647227
743793 500028
391962 582429
440544 992364
354448 545304
14651 902185
243355 418550
470290 506538
401867 12038
114810 660446
111821 323734
15103 657737
411918 237660
292219 739964
285695 442928
793813 951768
929187 44846
441258 273407
762053 604133
392837 316932
357039 821465
449051 706483
145984 731665
119146 282794
761778 345358
939906 489772
200949 975927
69543 841195
936135 439557
616028 844978
915134 819784
600112 72015
874325 806813
32653 211262
748987 797912
371264 918492
509429 824442
658697 291257
798164 350634
35712 328512
25673 127405
566649 481904
316259 221383
690482 230678
676372 700694
148404 922298
90773 981213
310252 450869
679585 563930
406416 657405
218260 309329
200806 477711
637262 813102
271979 598379
555501 575116
795776 803318
849602 59703
650298 494182
937027 964612
962359 233338
495787 872328
378564 740712
432421 692260
886850 755306
758086 843036
182098 205355
450439 567857
756214 844130
538348 754032
825416 154951
350082 100254
307099 797314
772405 384603
934250 804293
913694 835785
17311 608870
886759 451466
642304 965014
41877 738386
459905 780401
983783 926210
737843 803868
817071 495322
857159 398189
310660 548357
329506 337349
395805 366363
705656 779320
491183 519260
684679 957777
317734 824525
347304 386443
537765 865827
728021 574503
919705 952221
296135 15723
999415 519433
687108 773834
485745 299775
489047 800313
497157 789233
437507 80135
299251 699599
701795 513371
496990 257224
693711 364172
653610 529739
141841 231207
144007 994811
337214 990540
396968 510714
511613 568762
492587 915161
547749 789000
55055 665002
440529 569010
818200 771795
307756 30574
532253 857690
345815 9991
87801 714451
193581 846955
247822 598883
327402 402633
770755 394918
180724 722774
406597 973044
95 970005
832522 758213
20414 621021
626771 215737
324133 892352
495731 487252
806375 997798
285921 429103
553053 24151
933914 686484
175020 415015
464090 199581
433566 262990
594910 639539
217861 333356
19230 513450
642490 765733
38050 527692
201726 20781
846648 706554
131103 436863
328686 948630
545024 545504
401416 888981
212189 134405
142830 213027
399240 576771
461629 332337
798816 441680
955479 79820
71268 101100
596749 918635
385393 809445
79011 875782
466603 170750
397612 661449
411380 674186
10339 737818
24577 548888
217396 104725
428734 810364
515799 71413
949774 232387
304040 160552
954128 812593
341822 155992
190519 588503
366894 973561
258387 790178
961353 214814
863690 328602
346915 825923
723096 220620
765143 609004
784265 626966
275310 324563
375286 385495
665836 32086
490201 364320
203526 984874
986738 765347
151131 284139
290888 565380
983023 214083
225895 631130
63059 348426
604713 75776
227567 381891
502469 871390
650139 756595
701629 412873
74905 527498
414545 618305
226503 673256
35188 223165
2815 358676
665214 468306
823010 688168
182972 499754
782778 260493
912933 780670
599095 883913
543228 616662
678542 703822
49699 835855
190777 697106
224800 74718
874322 18090
651097 635144
138929 838245
490563 373786
