227797 417114
222645 387189
898385 228703
138569 402646
787227 781938
248148 130087
247854 345831
667364 657373
343218 828168
120511 240661
311864 360720
509432 466576
574084 467922
459370 923723
872003 78266
837525 928855
759256 97476
282804 428223
379220 862650
426554 310391
463721 450955
437092 429120
430772 146347
743334 841735
265772 317036
763932 422079
374056 441483
369456 797686
409916 355107
786458 644034
16477 20540
718235 441483
675330 919563
794954 177415
523986 426992
491688 355896
109635 897715
860056 666609
772712 854838
448172 573689
111021 597624
29923 674544
48514 614726
183234 351667
784358 117985
336514 493992
807476 297724
416769 859720
130739 380981
412774 718513
229610 518735
895583 811896
823254 835895
257724 995636
318438 850155
267682 257970
366296 318414
787634 301840
485583 532187
699543 537759
792876 734720
392379 987896
476227 231909
765096 413304
739314 342716
443926 493127
582868 671950
994334 79329
87698 48320
503490 636567
188628 160153
239534 141405
287025 299621
991751 230172
289776 716727
376501 402313
321491 782653
371307 545395
269666 576325
876444 437167
415225 151693
236335 232119
789423 75165
71400 386906
374714 363497
819869 320270
871159 80533
597934 639832
440017 120909
655356 187615
465358 989646
650905 470049
124125 521046
737588 396434
335481 349698
416544 240905
868804 83205
318836 479574
109922 797003
611933 503403
90703 473711
141421 143128
109853 691761
498880 514382
633323 722581
553561 516216
643098 140116
230574 634607
280362 5101
844356 71585
592431 331331
353018 717267
664359 876708
153105 459830
213428 868945
623421 584218
969223 853187
96901 848747
839703 92606
624666 596399
519661 817450
503738 113503
125210 872268
660912 916499
255034 991891
651880 297012
305405 277456
734273 867859
9863 539001
852609 646100
6534 370008
977026 687142
549415 293772
626639 291190
908998 468726
308287 202744
809664 614573
625685 763384
375239 70432
848688 773854
679493 508643
219377 843242
362459 945365
187612 258875
262550 768554
671923 324923
83574 725713
363613 622967
549268 959295
322982 339739
923003 880326
736221 761707
727278 263745
271806 765642
150386 318831
232783 207955
16259 235908
686338 152175
796733 236316
116826 165942
539372 414338
802986 633899
296558 128938
336869 189895
985616 720003
969070 690106
608630 217582
132284 188353
518778 590829
389699 552890
139443 312508
388735 783700
182553 720614
498873 739697
717322 221702
290831 6934
997232 691976
313631 911447
625059 119752
416207 645561
462283 523543
186783 425968
861727 944446
36393 61545
561636 737456
7687 359788
555814 131969
348417 748923
221217 836653
187540 890007
451963 333887
384010 923337
826785 930615
132327 772706
10740 93559
618563 311810
972251 422674
364915 381438
753285 169831
924859 763204
140661 330338
589170 235988
212026 537018
619254 281935
727131 491367
271222 64132
367247 438745
738312 562439
388747 59779
377829 159849
