208297 135716
907021 962769
500112 721011
680978 102176
62775 653045
77040 226495
798497 794713
598223 927215
245256 963932
804875 624184
210614 997789
297099 577351
360848 261862
564537 600143
577730 944503
808442 196452
910199 840486
446786 666560
953039 533095
524727 985681
144024 223760
405413 203300
458419 592771
512604 917374
379596 312843
687104 776960
258892 815729
590042 376053
437835 905124
334491 746457
513272 945396
662067 320537
886817 586438
953198 421993
442982 60809
621131 13502
390924 918069
459807 442454
145538 429756
254062 565245
25488 841726
473980 365163
988357 657021
96752 997306
177397 201208
10868 231592
485739 797874
847078 452785
677322 803651
184315 110805
920693 745121
505519 952173
172806 112429
369396 179526
302684 116605
682184 479691
997782 763725
665317 307964
549350 728893
712463 727460
90879 849872
105413 996180
258987 279902
983362 716101
63242 447602
579469 939035
43350 562482
421885 325428
126972 151823
278943 443921
816313 923345
921522 9634
670468 300763
564296 599904
547560 584411
293443 226759
673624 469531
264580 994392
285493 509980
980293 183525
478582 663947
486572 828162
497937 230117
911282 164188
683681 274348
875538 607744
316617 112717
919404 786280
640831 88164
220369 447004
694013 283700
604647 134347
254020 681648
273583 689690
355890 846933
631909 150422
431578 543075
857925 283017
223689 887904
106204 575302
590222 794515
529453 226346
131100 873289
297969 292467
853743 311304
741899 800636
275608 660098
286226 248626
397817 652764
293799 674666
948235 129548
492184 70152
664750 472808
404829 879282
860374 960253
742018 53798
917730 941457
7291 608034
303823 252042
135113 227
314774 658964
43793 765392
458061 81728
544965 999755
975414 418077
74112 438763
160193 661839
490316 209462
629078 363172
796025 654386
512469 273611
252568 509370
368743 618532
614237 579068
283212 406297
374286 920373
923779 574406
329786 589347
472240 678973
170067 89025
843710 425178
724417 473875
456099 31474
708336 815642
878339 170748
544618 504662
994691 599882
283499 992484
438817 880483
926173 775454
346972 210744
772715 215260
489913 861179
728014 193274
406151 287999
949573 655517
847162 702327
862745 696632
975858 592593
318180 932491
263338 134389
904095 552231
482561 9629
457095 343842
414861 448660
958131 743194
477280 627139
781542 825399
145504 587313
905670 936889
873869 330493
881700 880946
439842 341688
182176 124429
621917 580535
475789 244166
283236 414033
795869 85263
26042 346222
566510 814798
882149 653988
11006 385088
725408 107492
378049 772337
826490 492462
666923 115544
851567 378583
939712 329609
612556 804178
589407 480249
793157 408981
581695 129417
165305 91507
302101 107644
726565 388490
515726 332274
487892 153918
431652 411772
66525 683278
961391 408834
196813 938093
193405 75977
353696 20554
