161126 398044 443
949630 489643 525
635667 417562 509
608496 745168 509
106860 765129 509
763339 155839 509
817525 275527 509
463139 59841 449
556128 590979 434
403908 794188 509
621257 595512 447
454994 935535 525
53740 187720 383
881538 56700 525
52805 561448 470
971205 849165 507
307358 115614 443
579717 186778 470
459053 264910 449
744117 340377 509
270514 8594 443
366583 881318 525
424671 445258 400
470927 723238 509
537060 571389 452
764331 860867 525
87835 585645 470
38379 701992 509
784932 315473 509
473379 353236 449
65124 473294 449
698776 110959 509
401485 171553 443
359846 529191 470
119327 573344 470
726203 642335 504
572725 210826 470
255178 409339 441
44101 658553 509
282186 753951 509
505362 687855 509
688874 518187 509
310871 11913 443
659690 911688 525
616825 474371 470
79024 467417 449
155208 999063 525
467592 1608 449
160838 734009 509
534721 775372 509
919991 971891 507
184605 645211 509
463482 908726 525
999163 908297 507
295048 278461 389
180702 418086 449
848604 747277 525
284961 1940 443
788182 999592 525
795966 610468 509
32272 733295 509
289895 70745 443
218233 596329 470
585746 941432 525
848055 726042 525
156388 775581 509
502171 291570 449
134763 355105 443
663117 880156 525
844581 145943 525
381119 2845 443
577185 964843 525
819742 474857 509
400249 716950 509
301547 671154 509
326603 44666 443
80140 924680 525
708606 334321 509
519941 958753 525
858701 430358 525
917401 651328 525
229222 477705 449
235719 761491 509
880505 596175 525
386239 193367 443
962806 879766 507
196786 897393 525
939716 527934 525
116320 715303 509
227872 681136 509
977822 102664 525
639529 495728 509
945348 603400 525
561062 364179 470
232366 601849 470
204120 541155 470
10834 542736 470
548324 472000 470
494148 808125 509
287580 374610 441
355217 859191 525
68911 591262 470
126894 500937 449
728782 717525 411
391186 503845 449
865532 596220 525
564176 372295 470
893250 369213 525
709275 93690 509
206401 949818 525
698579 482462 509
17389 833406 509
790156 349180 509
789375 371081 509
988516 641365 525
144691 950009 525
154798 392545 443
573154 420078 470
453926 150169 449
501526 919968 525
356612 7150 443
142816 890452 525
298374 360662 441
287243 508067 449
863341 641868 525
641218 309615 509
678213 796771 504
461682 433029 444
775768 679060 504
27356 653097 509
18124 248009 443
523583 805612 509
616894 557534 447
875524 220001 525
863252 330923 525
805107 618806 509
122346 957423 525
224997 683508 509
796130 98591 509
740185 290226 509
256168 377746 441
658567 390823 509
942428 524317 525
766587 591456 509
432414 178477 449
503062 619179 470
348942 136863 443
631945 327481 509
343845 425616 449
80769 13452 351
819126 778615 468
756252 81275 509
666876 844179 525
15220 9821 276
540048 260950 470
815623 544430 509
794877 990964 525
288537 70782 443
352526 700972 509
563110 495236 470
132924 470728 449
960985 894417 507
451135 521432 470
825824 697538 504
602502 718960 509
536902 642683 509
83105 71835 351
585929 761267 509
439006 684770 509
532028 779018 509
259688 294948 407
894805 531333 525
387009 920592 525
401563 110495 443
74222 69433 325
218014 708865 509
35158 374869 443
146826 32239 375
795786 259521 509
409876 576613 470
225599 294627 443
412135 650474 509
866868 581183 525
964878 59028 525
445913 47250 449
472635 294918 449
880062 539487 525
871236 158393 525
124402 266130 443
12628 201771 383
923720 721843 525
959840 893365 507
639431 896369 525
320004 926102 525
981079 718588 525
967292 687793 525
710964 330803 509
807193 970928 525
98817 709287 509
311599 84166 443
431874 779637 509
68686 613068 470
820097 337522 509
742595 451191 509
830080 575805 509
668456 674634 367
153511 496123 449
617998 53731 470
313539 775219 509
77980 325516 443
919302 259416 525
447781 169727 449
518275 930513 525
154055 419131 449
240716 910034 525
481943 69778 449
869128 426208 525
797203 282524 509
715700 285457 509
52438 169872 383
503430 521352 470
792771 374639 509
537562 864993 525
293790 880398 525
737025 609291 509
82374 562037 470
114588 722185 509
839663 995796 507
847918 171006 525
842189 632098 525
615074 84572 470
473287 449729 444
358266 695501 509
698632 85420 509
758577 625170 509
231809 624759 470
179869 904269 525
46700 708074 509
866337 651928 525
217951 257726 443
855760 835228 525
413381 550580 470
216095 944755 525
564294 607896 434
465489 690478 509
819369 543368 509
435681 111800 449
974045 905982 507
355392 37379 443
754283 451948 509
772006 609037 509
660862 429685 509
207970 142373 383
942403 558966 525
917434 152836 525
767316 136167 509
348001 178183 443
450075 818868 509
416671 477270 444
239065 914014 525
535728 194213 470
94466 413802 449
166886 571177 470
867052 114957 525
785560 684861 504
778973 125976 509
19677 590698 470
560691 420025 470
828346 584325 509
807249 544331 509
678390 312227 509
267166 989488 525
939049 917909 476
875574 978657 507
973640 143533 525
704240 914328 525
566652 621415 447
819506 328838 509
932121 239404 525
850209 597874 525
499553 46673 449
294311 228751 443
669187 521693 509
779070 805213 468
476977 14757 449
158504 667356 509
190860 87072 383
404916 467769 449
295796 516978 470
591779 988085 525
