393826 935802
550639 357091
370734 843173
228847 772904
35786 901137
184955 829466
97824 61443
92810 430197
413431 893657
716336 217590
250423 317945
571044 32256
647324 742802
457449 641202
625009 714314
10181 350302
834452 728025
158674 540240
454611 68604
625988 179528
648014 95534
256002 862151
486799 420028
404073 332718
267529 873495
864907 905757
776113 631373
420054 15686
877137 832631
103478 742942
576436 746493
736836 203196
68205 662983
785444 402353
904249 601746
647457 573812
403418 804220
231172 463348
686630 575526
682398 502249
159589 66079
784841 952832
500491 955896
854836 156297
750809 249363
557528 978673
671703 968290
481206 753136
817132 180363
655480 975584
548413 342336
689415 500029
779916 257514
138742 70880
348781 739114
185827 371610
620380 214740
813582 427645
181997 123889
97904 994535
622532 618538
577514 64817
420676 741033
580033 952716
124821 496550
318493 802852
621276 184515
169178 368971
880302 816754
887899 191017
899547 973095
659145 844367
287455 215356
241032 882025
84328 620293
998754 900722
272488 203680
200367 341047
498829 594732
125638 773867
236340 154481
613876 877199
373000 448580
735420 841666
759856 856135
645072 445331
404251 570921
514371 251529
776520 7875
916807 984618
541381 251906
107392 654653
952313 975516
654966 172830
674973 602825
520833 614300
226226 486058
789808 91030
680098 901624
160712 868625
68208 30707
530753 76841
565673 999100
44330 108269
918608 628210
688736 882038
264070 274075
124667 926654
554872 650390
843519 280074
564962 100448
636070 248718
504882 442474
643274 987956
710082 49602
111373 293948
464117 297432
715288 150315
428932 949447
399267 494908
944422 906883
133995 752538
391605 154300
172323 23685
828226 62844
558683 250276
709295 337720
838313 259102
803195 929833
367270 284671
27415 796639
510845 261907
750257 306635
650555 679011
442867 827505
86681 844240
454227 630923
171583 902630
389954 306227
706052 757757
970448 815228
561088 582741
501618 294360
683728 911342
713671 493134
704126 302253
601169 273107
859910 561514
972282 343257
344175 241834
245176 821098
347457 633506
606297 695392
391641 662701
553855 501068
131679 739617
237388 949962
463977 757467
177660 147999
408422 536605
725258 431159
568681 131550
346265 201068
499912 759894
682713 425626
900576 417308
512523 295123
973013 718555
508497 673622
709455 43941
433556 411603
97506 449735
180177 450987
181 852313
289387 426201
666047 289984
816880 579386
93223 48741
351142 632319
243708 273106
323788 255915
68549 750352
957057 449291
891111 757742
485442 321008
354120 459853
789670 445155
202483 403835
488833 445267
262803 369778
742261 575069
471740 434021
966897 359330
556410 167707
931123 423250
982363 526812
607947 774144
417753 565310
571715 785799
905182 687637
744101 752986
740671 90000
112567 963643
189758 63283
460246 203123
200985 381852
353010 514293
615281 819366
11734 441034
972890 261566
386181 677491
288544 341880
974351 266027
678182 222422
29232 158018
33527 883012
53087 967888
901700 888636
408719 778108
352665 717653
71084 406605
888287 516574
784248 48
592360 952408
292597 494874
665764 347320
293254 42156
963673 810714
675993 335495
620574 368031
298689 893166
561921 571586
613542 281852
720993 607164
614023 60770
553509 955322
487182 445376
536265 286266
854511 577829
864357 965679
399821 652710
465346 382322
941998 351827
184362 753631
309976 677404
520812 417844
770385 633821
489955 122684
540684 281402
705716 790944
569784 90323
637133 211115
605698 554777
146454 161787
353981 222591
141829 109559
737747 153225
999011 779869
278500 894954
411581 650165
643655 153168
801930 408583
803609 179272
636111 761335
708288 281643
191848 805805
206406 656870
17778 696704
448338 730779
560931 105084
298173 299431
449758 536212
916252 123801
253887 602561
622863 474034
389026 367796
232324 839117
455656 518894
958361 323776
466631 369288
626287 66249
857714 581573
521558 862523
190853 370447
25631 746617
961044 22341
874618 933839
915977 324233
749456 679273
303112 380218
142148 57277
779822 988627
755756 449027
19721 43121
968504 696107
