359915 359915 118
523914 523914 134
296881 296881 66
74683 74683 113
965282 965282 246
867138 867138 189
93569 93569 85
402527 402527 144
821714 821714 114
809549 809549 88
267341 267341 146
819069 819069 83
256972 256972 257
261678 261678 76
949488 949488 78
356468 356468 97
519700 519700 72
857910 857910 114
7772 7772 40
788905 788905 101
666331 666331 142
750802 750802 256
755152 755152 57
964340 964340 78
890894 890894 171
457298 457847 338
864802 865162 326
762497 763332 331
17524 18400 279
177504 177619 228
10520 10693 255
387173 387715 286
34234 35068 311
431680 432482 343
450885 451383 307
625902 626031 292
48538 49363 296
18923 19016 230
949168 949790 352
954347 954578 277
507984 508049 227
20010 20015 181
361195 361745 286
325305 326213 322
701408 701887 411
290945 291327 327
873059 873226 326
115421 116093 349
171504 171673 334
898713 899210 370
542141 542234 240
822496 822541 220
610334 610418 341
937013 937077 184
765193 765232 287
430357 430443 281
155174 155214 202
447711 447717 201
831511 831528 357
906577 906598 233
92068 92162 284
458945 459022 263
648174 648221 248
482339 482406 227
748948 748958 212
932063 932081 184
185700 185774 285
277922 277975 177
465161 465187 232
499818 499845 289
757989 757997 287
137493 137528 207
346285 346332 229
800292 800346 318
822524 822581 207
848353 857204 419
125010 131147 344
146907 154839 370
695732 697753 336
922565 926303 383
286821 294339 389
295655 301648 371
98514 104528 341
197699 204836 342
781681 790271 406
459609 463916 444
905938 909486 445
932941 933628 339
486557 490949 382
650700 656256 385
903088 904163 295
177676 184262 365
324787 331120 353
7272 13721 276
932666 932894 370
180408 180718 365
469744 470706 307
506545 514521 470
791238 794548 437
570108 571097 377
685560 767210 504
26510 109099 354
615448 708011 509
831663 914164 525
31826 109108 354
467257 531951 470
611634 705386 509
11072 110037 354
804506 890870 525
549603 619490 447
196235 281124 443
559612 647208 509
86965 159119 383
751787 848987 525
844502 904150 445
457328 551675 470
642770 701930 442
376463 475886 449
125242 224165 386
720591 806039 468
913485 986770 507
87704 156772 383
315146 405572 441
283293 335615 389
185069 250639 443
720891 819625 468
438427 701101 509
310760 538797 470
260175 423202 449
466251 677879 509
307629 533402 470
142170 401270 443
406421 663214 509
225957 390849 443
668409 941941 525
286967 404027 441
194013 303456 443
593043 856170 525
316883 373455 441
24503 114395 354
920007 979537 507
53509 285955 443
321363 536491 470
48108 132026 354
131897 251095 443
600526 794345 509
155707 341826 443
515598 786861 509
12090 208653 383
184243 252627 443
305843 331299 384
252951 307954 407
840445 902506 445
174633 201625 365
933667 979428 507
193982 198548 360
901344 958173 507
587514 679752 509
623137 681020 509
899706 907706 445
385316 388911 348
89255 102028 341
819372 823099 450
476179 532446 470
837494 851113 525
86877 98654 333
876615 970292 507
725601 753603 424
246207 282944 407
266176 333754 407
406812 476108 449
98575 152514 375
217578 291298 443
257007 334019 407
200785 212914 373
422929 491538 444
438003 523206 470
142492 218583 386
677101 688938 398
935797 968851 507
641528 669026 442
968822 971018 458
916457 993268 507
116133 193509 383
197198 252791 443
468457 549471 470
396784 427510 449
630201 700694 442
74415 136081 354
575638 645909 509
808106 870375 525
827439 910357 525
779308 818632 468
224265 228850 368
653566 726328 504
29938 94360 351
531466 540950 408
114972 199600 383
390604 403809 405
839617 912493 476
38577 38632 231
