701036 879105
752555 830502
584817 736972
510278 689548
654218 490631
681286 937727
998636 360899
143002 955123
503890 503955
903058 378989
90169 572743
446381 21978
614368 159373
866559 92318
463851 893872
851853 826569
778707 388337
17269 706498
139470 112412
992143 418466
182413 752330
432798 634954
367383 135694
727542 888388
911711 777535
984431 947919
925590 120747
333344 272987
862562 847782
413855 961695
846232 14355
202024 702801
871209 707698
325898 854076
124292 354397
778401 499834
207286 740161
920072 417674
825128 11207
877037 320645
267213 88245
705915 879462
203616 371106
483119 688830
813214 243235
278512 381810
385519 745179
804269 642459
455304 515234
778908 451938
500901 14550
275036 977375
689008 893175
573111 292253
402085 508458
255647 480757
984460 850012
429621 623451
153595 508715
518138 407509
999191 409361
716409 891973
476904 933232
534320 685998
490783 550690
963736 164039
67133 942069
777803 31591
121761 403082
87991 487423
114114 258971
775571 180580
995699 387733
610040 571239
446620 685394
747627 733822
19781 237673
616177 875268
489975 681458
902264 814378
325151 622146
449352 916355
219424 930816
892926 550230
495373 730223
823106 360649
233909 963196
347026 103627
267687 643936
930162 551874
519128 781756
502980 874959
741464 202385
424532 9920
64671 528806
87876 134056
203821 215290
45296 455796
879180 512796
112418 622682
497475 297543
865996 949534
743981 959210
177734 869414
402499 73434
601382 135467
359425 802191
74156 979485
777528 492004
41643 691309
746582 35773
249072 228430
553298 244632
329286 347660
10452 822941
883591 288974
343674 718953
423271 663456
147148 733805
797370 134049
570415 361079
999532 706456
473366 411227
665769 615586
867196 708454
602147 694993
2811 359840
787719 372834
628146 624446
452639 757577
168337 659300
686638 607626
130565 434068
939038 609556
932045 56773
965718 868578
658195 833785
593581 660508
898082 982248
263726 864931
463013 818210
895853 269932
204796 122120
744369 216850
495069 258802
112582 494877
291234 508557
829235 149143
999808 59449
353779 627274
753318 129038
766624 35634
292727 717735
179428 69231
214182 899578
272093 893283
406486 510158
300560 266140
541321 302035
361759 342432
882561 350862
416783 444529
795791 654899
668049 887416
319147 518164
824892 435926
287586 632608
9025 294309
552315 198066
307387 92396
596660 97802
692448 839966
777371 429037
717137 434631
466489 789681
950821 403011
600073 863537
230235 838436
20818 972547
390040 325725
172710 33784
854436 836499
889129 98243
462086 918825
292120 643633
329674 847465
264163 339321
471006 112242
174414 603976
207842 407274
564557 46804
883412 461958
896686 815924
727250 262435
516353 356453
545781 508874
184466 817260
566247 15926
7296 668408
301549 247810
68897 429128
251462 511053
661505 220044
224492 416332
172427 370164
748977 116575
729005 649604
859356 114948
147071 203950
444667 436227
56921 861151
699545 217811
198674 985072
334574 413575
949557 496586
530521 410652
844551 14250
574054 914936
198321 755648
543380 395593
524668 786819
948642 226396
532032 480353
746502 145269
353455 750476
254347 896047
979379 273559
894817 553481
179015 824233
83083 242021
74778 931312
114010 157794
571333 121816
316870 443748
641240 984266
648224 591006
441911 51552
951423 779392
