107 3654 217
1280 1346 177
4522 769 238
2088 1509 180
1461 4495 238
1874 706 182
4038 714 238
1020 293 179
4723 901 238
134 630 144
4570 682 238
1664 1345 172
3841 2637 238
3128 4480 238
4793 4317 215
2061 4506 238
3074 4506 238
1296 1066 182
4636 3129 238
1089 680 179
2357 2798 209
1634 2322 183
435 1201 182
4357 4798 215
2546 1383 209
4832 2703 238
4258 3965 202
570 1725 182
193 1758 182
1543 1277 177
1750 4571 238
1841 3763 238
993 4980 238
1523 1175 177
3632 4618 238
677 3465 217
4710 1764 238
4884 1248 238
2069 1961 175
642 641 52
2417 4399 238
2281 1300 183
1505 1145 182
3982 2591 238
186 4998 238
1893 3558 217
3511 2035 217
925 273 179
3745 2202 238
1281 1688 180
3936 794 238
452 4359 238
2566 3508 217
3345 87 217
2448 3985 238
2315 1710 183
67 2535 209
1419 3990 238
457 2180 182
290 122 128
1019 3796 238
1196 3107 217
1096 4798 238
3565 1161 217
2340 1188 183
3716 3395 238
4151 954 238
4007 2203 238
1441 2351 183
2864 2826 173
3220 3953 238
2129 4023 238
4698 1652 238
985 1684 182
1403 2243 183
1681 4418 238
1516 1890 180
3532 2188 217
4474 2350 238
3817 2633 238
3499 1551 217
4061 3111 238
3691 3190 194
1236 1139 182
627 1960 182
4193 4760 215
2307 955 183
1806 1169 180
2862 1682 209
2927 96 217
1042 2049 182
206 4227 238
67 809 171
3158 208 217
3859 3738 176
1783 1777 149
4184 264 238
611 3631 217
4423 4788 197
1301 1495 177
2477 639 209
1458 2281 183
2945 4849 238
3510 2219 217
3758 1720 238
275 2124 182
2102 331 182
4095 1949 238
3099 1907 217
2434 4391 238
547 2528 209
1472 4475 238
3555 3679 194
3476 1842 217
4536 2775 238
4914 411 238
969 4727 238
4853 1992 238
4046 604 238
1055 1686 182
1673 2893 209
4554 1104 238
4912 2414 238
2778 2134 209
3424 4996 238
2047 2043 157
630 3024 217
1790 3353 217
3982 4413 215
3990 3850 189
4500 4846 197
2764 973 209
52 842 171
350 3276 217
3466 765 217
4515 486 238
2289 2754 209
673 286 145
1331 4492 238
425 905 179
3537 705 217
4557 3382 238
1116 93 179
1784 2219 175
1049 610 179
2487 2898 191
4641 4605 153
3783 3678 238
1339 30 182
843 4854 238
2919 71 217
3442 2036 217
4782 2834 238
3598 1745 217
2638 1451 209
3977 3630 238
2062 3816 238
4584 1048 238
3784 1341 238
2122 2409 183
2346 4412 238
4684 2476 238
345 1626 182
4363 3885 202
1140 1514 182
3205 3540 181
1396 3120 217
764 4420 238
1074 1073 24
1477 3979 238
4863 2970 238
4171 2559 238
4513 3221 238
4300 4090 202
2014 1822 175
549 2158 182
1364 1760 180
1272 1792 180
695 1619 182
1982 1481 180
4140 967 238
3153 913 217
3114 4031 238
3258 4143 238
4807 2091 238
1847 1969 175
575 1034 179
3950 2068 238
3711 4351 238
4391 4680 184
1779 4573 238
3519 2395 217
2791 2200 209
2208 4011 238
4354 3883 202
3896 1930 238
3655 4276 238
1008 4206 238
432 4973 238
66 3471 217
4696 3330 238
2601 1785 209
3077 4468 238
314 2084 182
284 1140 179
1131 2962 217
1579 2944 217
3979 2955 238
2179 471 182
3929 1286 238
4089 1501 238
3780 1211 238
4890 2188 238
775 2596 209
2832 2546 191
3896 4859 215
3689 4068 238
938 2271 183
4301 3210 238
4431 1535 238
75 1968 182
3791 2259 238
2956 37 217
2672 3978 238
4502 304 238
4944 994 238
3321 4559 238
4225 3951 189
3411 2567 217
2395 913 183
1407 431 182
1603 55 182
497 3240 217
4658 2222 238
1267 3313 217
4219 734 238
184 329 144
257 2961 217
4887 2849 238
3547 1364 217
4576 542 238
2436 1701 183
4119 2477 238
4032 1011 238
210 2894 209
578 4407 238
4010 2175 238
2994 4572 238
230 952 179
3562 1004 217
2260 2312 152
17 4970 238
4892 2634 238
3521 3097 199
1794 3026 217
467 1311 182
4757 4396 184
3666 1215 217
2663 3708 217
