952492 519073 525
227331 378248 443
419640 528772 470
918149 667309 525
242183 824629 509
320919 115230 443
656210 157174 509
311874 463156 449
492496 278836 449
140785 73484 354
264499 959065 525
651532 562080 509
181436 504228 449
668366 467724 509
348561 597943 470
157858 564555 470
561726 44805 470
158925 919891 525
119792 622616 470
790972 172382 509
335589 210305 443
960009 328763 525
241758 901968 525
307942 757228 509
962813 107771 525
18005 32554 308
765755 737595 424
83579 841569 525
334986 25949 443
863787 598894 525
751659 672161 504
492137 528435 470
118957 439061 449
353264 591927 470
789422 609295 509
47070 44881 314
43052 574547 470
402439 902591 525
701836 266240 509
596334 387512 470
137855 676844 509
960627 940654 414
310898 120113 443
210588 128394 383
146136 172722 383
914995 776683 525
300694 219504 443
54361 544521 470
700606 212089 509
711005 188771 509
781517 125482 509
960071 740093 525
714512 295119 509
617645 392227 470
810415 640820 504
764237 956527 525
234981 305155 407
466405 576803 470
327639 516582 470
756085 646657 504
739764 468635 509
238220 850193 525
252361 876982 525
791888 556141 509
71463 207611 383
775755 773724 437
94502 370939 443
178610 60222 383
335946 34576 443
267688 997847 525
931906 8903 525
29940 660645 509
387965 576817 470
180667 412124 449
202536 761061 509
600374 955354 525
384531 757063 509
529810 294954 470
395725 877207 525
641815 115127 509
778778 74748 509
523144 991200 525
834067 869553 525
216147 801129 509
24137 106734 354
856711 827146 525
703018 831755 504
398341 104706 443
680592 483032 509
502972 980008 525
860337 55621 525
864394 957547 507
295093 181454 443
595260 854493 525
152157 719719 509
27708 778441 509
867007 93972 525
176144 934645 525
359280 169693 443
784907 44935 509
216830 472663 449
344932 179311 443
852952 678309 525
551644 750039 509
194398 523308 470
299831 527732 470
991725 77650 525
338454 737706 509
887611 141947 525
714998 399680 509
899981 976619 507
981139 649217 525
96046 89715 333
408350 816629 509
577997 158844 470
563456 287620 470
290572 177422 443
208373 694437 509
225928 998936 525
727387 254860 509
988414 981268 427
59394 452428 449
505427 318722 449
705316 9502 509
229238 410943 449
232161 12548 443
538760 813208 509
816062 777623 468
206105 546558 470
281615 23436 443
202926 103591 383
87080 404808 443
448860 76896 449
84611 83402 320
296189 629456 509
512084 883894 525
609829 498073 470
717390 163856 509
823018 559654 509
160429 419620 449
340665 612587 470
850830 774617 525
814509 187290 509
188475 635879 509
410528 392700 449
782444 613537 509
609049 400244 470
475671 882702 525
503369 625990 470
535936 778060 509
644435 587301 509
114588 516476 470
148763 345026 443
489535 230940 449
573229 639392 509
400332 69919 443
693536 367183 509
541218 232645 470
414597 40575 449
356856 670466 509
881337 371258 525
400706 677621 509
225487 798584 509
161420 621528 470
463111 27701 449
146216 197076 383
9887 522097 470
499855 702415 509
706086 818109 468
263775 207017 443
825248 245431 509
672135 389311 509
456387 816592 509
106541 229749 386
943758 310509 525
600251 678237 509
129033 241912 443
374501 783348 509
153551 894482 525
828999 583938 509
982364 122615 525
870313 992510 507
487791 601729 470
594115 275313 470
872531 167018 525
616655 273771 470
478460 699401 509
921976 789480 525
904159 671344 525
987168 814021 525
462368 977530 525
348125 637444 509
507503 74009 449
809897 731672 468
326847 894665 525
434694 966768 525
510882 783168 509
204616 866027 525
881644 576321 525
79918 125813 354
937144 743831 525
277192 351109 441
542568 558145 452
876916 204695 525
753993 68855 509
94236 103375 341
793496 613437 509
236726 415469 449
400354 13271 443
254986 993992 525
856302 811671 525
347847 428233 449
144047 644426 509
276363 34299 443
910723 548440 525
588820 906566 525
48920 734911 509
698898 750067 504
420679 984613 525
765447 358638 509
482609 195335 449
381214 841489 525
255897 853782 525
46308 19175 324
925575 528007 525
106121 743146 509
250043 123073 443
794942 443352 509
511283 816029 509
488735 273531 449
149391 962851 525
726740 488893 509
791320 556157 509
264952 145875 443
734798 651440 504
775189 864427 525
649263 931040 525
105558 47827 351
218292 985938 525
908728 727721 525
275096 898985 525
187915 738225 509
254706 545885 470
522272 167483 470
550104 443638 470
701123 349364 509
650320 67552 509
448592 222268 449
676889 25281 509
951681 525205 525
429165 309741 449
316661 917747 525
455401 900973 525
673113 539070 509
334208 528966 470
780319 323132 509
927976 875430 476
903684 924101 476
91525 463696 449
155745 291111 443
270970 329358 389
278027 384925 441
726405 908471 525
134371 94267 354
529944 767593 509
128653 327648 443
56203 950679 525
944730 284241 525
244642 941242 525
924236 216558 525
824918 270057 509
60722 557447 470
835750 426411 509
876020 428807 525
510688 921420 525
352226 185928 443
152275 247254 443
708247 9025 509
804144 999823 525
511134 611597 470
228473 987470 525
209723 264729 443
77616 312310 443
163347 208443 373
685417 277822 509
945676 836172 525
